 Description: Water Pressure distribution is saved in this file
 
  1.000000000000000E-006
    0.5386195631          3629.83941      3629.84470      3629.84999              
    1.3711384763          4399.10426      4399.11483      4399.12540              
    3.4904426982          4434.92337      4434.93429      4434.94521              
    8.8854557290          4435.19443      4435.20535      4435.21627              
   22.6192865315          4435.19475      4435.20567      4435.21659              
   57.5808533406          4435.19475      4435.20567      4435.21659              
  146.5808688003          4435.19475      4435.20567      4435.21659              
  373.1440201339          4435.19475      4435.20567      4435.21659              
  949.8951732331          4435.19475      4435.20567      4435.21659              
 2418.1034438329          4435.19475      4435.20567      4435.21659              
   30.4721756420851     
    0.5386195631          2054.72374      2061.92820      2069.17874              
    1.3711384763          2339.47456      2349.90093      2360.35097              
    3.4904426982          2613.87324      2627.42003      2640.97502              
    8.8854557290          2880.44707      2896.96903      2913.48999              
   22.6192865315          3141.53557      3160.41226      3179.28941              
   57.5808533406          3399.12343      3419.06154      3439.00787              
  146.5808688003          3653.43661      3673.52609      3693.62540              
  373.1440201339          3903.80407      3923.92605      3944.05722              
  949.8951732331          4146.45966      4166.60351      4186.75587              
 2418.1034438329          4346.63905      4366.79592      4386.96108              
   61.4721756420851     
    0.5386195631          1985.29668      1992.28113      1999.36245              
    1.3711384763          2266.61936      2276.65278      2286.71207              
    3.4904426982          2536.94729      2550.14246      2563.32070              
    8.8854557290          2798.89056      2815.21458      2831.50433              
   22.6192865315          3055.29059      3074.14684      3092.98977              
   57.5808533406          3308.01254      3328.04452      3348.09747              
  146.5808688003          3557.66110      3577.87168      3598.11034              
  373.1440201339          3803.25803      3823.50557      3843.78059              
  949.8951732331          4042.11665      4062.38833      4082.68687              
 2418.1034438329          4246.71432      4267.00159      4287.31529              
   91.4721756420851     
    0.5386195631          1918.87086      1925.62160      1932.51040              
    1.3711384763          2198.39892      2208.07901      2217.76092              
    3.4904426982          2466.10177      2479.00020      2491.82866              
    8.8854557290          2725.09093      2741.20808      2757.24277              
   22.6192865315          2978.15852      2996.99526      3015.79697              
   57.5808533406          3227.38069      3247.49093      3267.64206              
  146.5808688003          3473.56552      3493.88333      3514.25574              
  373.1440201339          3715.53178      3735.89098      3756.30464              
  949.8951732331          3950.50063      3970.88641      3991.32565              
 2418.1034438329          4152.79683      4173.20006      4193.65607              
   122.472175642085     
    0.5386195631          1850.65401      1857.24995      1863.89012              
    1.3711384763          2129.36835      2138.68846      2147.87844              
    3.4904426982          2395.25981      2407.80694      2420.16054              
    8.8854557290          2652.06544      2667.95541      2683.68146              
   22.6192865315          2902.47447      2921.26564      2940.00487              
   57.5808533406          3149.02099      3169.20429      3189.45324              
  146.5808688003          3392.37193      3412.79192      3433.30162              
  373.1440201339          3631.49812      3651.96432      3672.52015              
  949.8951732331          3863.12389      3883.61879      3904.20233              
 2418.1034438329          4063.69952      4084.21375      4104.81602              
   152.472175642085     
    0.5386195631          1783.78541      1791.45148      1797.80007              
    1.3711384763          2062.26592      2072.24599      2080.89760              
    3.4904426982          2327.02649      2339.83893      2351.69819              
    8.8854557290          2582.25648      2598.19613      2613.61441              
   22.6192865315          2830.52498      2849.32841      2868.00558              
   57.5808533406          3074.80971      3095.05779      3115.39792              
  146.5808688003          3315.69402      3336.20380      3356.84317              
  373.1440201339          3552.35207      3572.91315      3593.60426              
  949.8951732331          3781.18812      3801.78061      3822.50192              
 2418.1034438329          3979.22046      3999.83386      4020.57534              
   183.472175642085     
    0.5386195631          1715.15117      1723.57578      1729.62422              
    1.3711384763          1991.30648      2003.84357      2011.98536              
    3.4904426982          2255.77714      2270.23182      2281.61952              
    8.8854557290          2510.19577      2526.85359      2542.04343              
   22.6192865315          2756.97448      2775.93498      2794.58693              
   57.5808533406          2999.29784      3019.61817      3040.05458              
  146.5808688003          3237.91863      3258.51217      3279.28197              
  373.1440201339          3472.25930      3492.91073      3513.73911              
  949.8951732331          3698.63277      3719.31837      3740.17921              
 2418.1034438329          3893.65178      3914.36012      3935.24303              
   213.472175642085     
    0.5386195631          1649.34584      1658.06636      1663.78780              
    1.3711384763          1924.35932      1938.07115      1945.67406              
    3.4904426982          2187.00177      2203.55060      2214.50670              
    8.8854557290          2440.52042      2458.65239      2473.70030              
   22.6192865315          2686.88980      2706.21496      2724.92051              
   57.5808533406          2927.90274      2948.30449      2968.84850              
  146.5808688003          3164.93203      3185.60039      3206.49304              
  373.1440201339          3397.36357      3418.09575      3439.05448              
  949.8951732331          3621.68200      3642.45115      3663.44506              
 2418.1034438329          3812.98967      3833.78329      3854.80050              
   243.472175642085     
    0.5386195631          1584.04952      1592.64614      1597.95011              
    1.3711384763          1858.81209      1872.45085      1879.32093              
    3.4904426982          2120.38226      2137.02034      2147.29314              
    8.8854557290          2372.07967      2390.52023      2405.18797              
   22.6192865315          2616.67846      2636.32088      2654.99850              
   57.5808533406          2856.06358      2876.57650      2897.23402              
  146.5808688003          3091.49111      3112.23282      3133.24773              
  373.1440201339          3322.21100      3343.01764      3364.10350              
  949.8951732331          3544.73284      3565.57908      3586.70257              
 2418.1034438329          3733.98084      3754.85377      3776.00251              
   274.472175642085     
    0.5386195631          1517.03669      1524.76600      1530.24819              
    1.3711384763          1792.63975      1805.57051      1811.92485              
    3.4904426982          2053.81027      2069.96696      2079.55210              
    8.8854557290          2304.31516      2322.43172      2336.57051              
   22.6192865315          2547.34776      2566.88379      2585.34633              
   57.5808533406          2784.84392      2805.38776      2826.10265              
  146.5808688003          3018.40337      3039.21337      3060.34904              
  373.1440201339          3247.11986      3267.99959      3289.21387              
  949.8951732331          3467.93705      3488.85877      3510.11339              
 2418.1034438329          3657.69066      3678.64033      3699.92216              
   304.472175642085     
    0.5386195631          1452.65542      1459.32938      1465.10862              
    1.3711384763          1729.83323      1741.94911      1747.84262              
    3.4904426982          1991.21439      2006.78995      2015.72934              
    8.8854557290          2241.28853      2259.07928      2272.66763              
   22.6192865315          2483.30152      2502.73280      2520.98371              
   57.5808533406          2719.62217      2740.18352      2760.93584              
  146.5808688003          2951.81351      2972.68372      2993.93313              
  373.1440201339          3179.13694      3200.08286      3221.41877              
  949.8951732331          3398.17200      3419.16249      3440.54140              
 2418.1034438329          3586.84798      3607.86819      3629.27580              
   335.472175642085     
    0.5386195631          1386.39068      1391.95005      1397.94010              
    1.3711384763          1665.48947      1676.32605      1681.96486              
    3.4904426982          1927.22956      1941.92340      1950.24856              
    8.8854557290          2176.94565      2194.24584      2207.24898              
   22.6192865315          2417.95916      2437.21276      2455.18986              
   57.5808533406          2653.14377      2673.71269      2694.48983              
  146.5808688003          2883.99974      2904.92541      2926.28684              
  373.1440201339          3109.95684      3130.96556      3152.42338              
  949.8951732331          3327.36810      3348.42477      3369.92886              
 2418.1034438329          3514.52713      3535.61536      3557.14966              
   365.472175642085     
    0.5386195631          1323.51948      1328.07433      1334.08552              
    1.3711384763          1604.52608      1613.15631      1619.33590              
    3.4904426982          1866.51883      1879.77027      1887.91786              
    8.8854557290          2115.76723      2132.31111      2144.89188              
   22.6192865315          2355.68926      2374.69216      2392.40555              
   57.5808533406          2589.69166      2610.25317      2631.03881              
  146.5808688003          2819.20376      2840.17768      2861.64283              
  373.1440201339          3043.81713      3064.88192      3086.45420              
  949.8951732331          3259.68555      3280.80179      3302.42372              
 2418.1034438329          3445.41134      3466.56102      3488.21465              
